UART/hardware/unsafe/transmit-without-interrupt/rtfSimpleUart.vcd
$date
  Thu Dec 17 19:56:08 2015
$end
$timescale
  1ns
$end
$scope module rtfSimpleUart $end
  $var wire 32 rtfSimpleUart.pClkFreq rtfSimpleUart.pClkFreq [0:31] $end
  $var wire 32 rtfSimpleUart.pBaud rtfSimpleUart.pBaud [0:31] $end
  $var wire 32 rtfSimpleUart.pClkMul rtfSimpleUart.pClkMul [0:31] $end
  $var wire 32 rtfSimpleUart.pRts rtfSimpleUart.pRts [0:31] $end
  $var wire 32 rtfSimpleUart.pDtr rtfSimpleUart.pDtr [0:31] $end
  $var wire 1 rtfSimpleUart.cs rtfSimpleUart.cs $end
  $var reg 24 rtfSimpleUart.c rtfSimpleUart.c [23:0] $end
  $var reg 24 rtfSimpleUart.ck_mul rtfSimpleUart.ck_mul [23:0] $end
  $var reg 8 rtfSimpleUart.spr rtfSimpleUart.spr [7:0] $end
  $var wire 1 rtfSimpleUart.tx_empty rtfSimpleUart.tx_empty $end
  $var wire 1 rtfSimpleUart.baud16 rtfSimpleUart.baud16 $end
  $var reg 1 rtfSimpleUart.rx_present_ie rtfSimpleUart.rx_present_ie $end
  $var reg 1 rtfSimpleUart.tx_empty_ie rtfSimpleUart.tx_empty_ie $end
  $var reg 1 rtfSimpleUart.dcd_ie rtfSimpleUart.dcd_ie $end
  $var reg 1 rtfSimpleUart.hwfc rtfSimpleUart.hwfc $end
  $var reg 1 rtfSimpleUart.loopback rtfSimpleUart.loopback $end
  $var wire 1 rtfSimpleUart.clear rtfSimpleUart.clear $end
  $var wire 1 rtfSimpleUart.frame_err rtfSimpleUart.frame_err $end
  $var wire 1 rtfSimpleUart.over_run rtfSimpleUart.over_run $end
  $var reg 2 rtfSimpleUart.ctsx rtfSimpleUart.ctsx [1:0] $end
  $var reg 2 rtfSimpleUart.dcdx rtfSimpleUart.dcdx [1:0] $end
  $var reg 2 rtfSimpleUart.dsrx rtfSimpleUart.dsrx [1:0] $end
  $var wire 1 rtfSimpleUart.dcd_chg rtfSimpleUart.dcd_chg $end
  $var wire 1 rtfSimpleUart.rxIRQ rtfSimpleUart.rxIRQ $end
  $var wire 1 rtfSimpleUart.txIRQ rtfSimpleUart.txIRQ $end
  $var wire 1 rtfSimpleUart.msIRQ rtfSimpleUart.msIRQ $end
  $var wire 3 rtfSimpleUart.irqenc rtfSimpleUart.irqenc [2:0] $end
  $var wire 8 rtfSimpleUart.rx_do rtfSimpleUart.rx_do [7:0] $end
  $var wire 1 rtfSimpleUart.txrx rtfSimpleUart.txrx $end
  $var wire 1 rtfSimpleUart.txd_int rtfSimpleUart.txd_int $end
  $var wire 1 rtfSimpleUart.rxd_int rtfSimpleUart.rxd_int $end
  $var wire 1 rtfSimpleUart.cts_nint rtfSimpleUart.cts_nint $end
  $var wire 1 rtfSimpleUart.rst_i rtfSimpleUart.rst_i $end
  $var wire 1 rtfSimpleUart.clk_i rtfSimpleUart.clk_i $end
  $var wire 1 rtfSimpleUart.cyc_i rtfSimpleUart.cyc_i $end
  $var wire 1 rtfSimpleUart.stb_i rtfSimpleUart.stb_i $end
  $var wire 1 rtfSimpleUart.we_i rtfSimpleUart.we_i $end
  $var wire 32 rtfSimpleUart.adr_i rtfSimpleUart.adr_i [31:0] $end
  $var wire 8 rtfSimpleUart.dat_i rtfSimpleUart.dat_i [7:0] $end
  $var wire 8 rtfSimpleUart.dat_o rtfSimpleUart.dat_o [7:0] $end
  $var wire 1 rtfSimpleUart.ack_o rtfSimpleUart.ack_o $end
  $var wire 1 rtfSimpleUart.vol_o rtfSimpleUart.vol_o $end
  $var wire 1 rtfSimpleUart.irq_o rtfSimpleUart.irq_o $end
  $var wire 1 rtfSimpleUart.cts_ni rtfSimpleUart.cts_ni $end
  $var reg 1 rtfSimpleUart.rts_no rtfSimpleUart.rts_no $end
  $var wire 1 rtfSimpleUart.dsr_ni rtfSimpleUart.dsr_ni $end
  $var wire 1 rtfSimpleUart.dcd_ni rtfSimpleUart.dcd_ni $end
  $var reg 1 rtfSimpleUart.dtr_no rtfSimpleUart.dtr_no $end
  $var wire 1 rtfSimpleUart.rxd_i rtfSimpleUart.rxd_i $end
  $var wire 1 rtfSimpleUart.txd_o rtfSimpleUart.txd_o $end
  $var wire 1 rtfSimpleUart.data_present_o rtfSimpleUart.data_present_o $end
  $scope module ed0 $end
    $var wire 1 rtfSimpleUart.ed0.rst rtfSimpleUart.ed0.rst $end
    $var wire 1 rtfSimpleUart.ed0.clk rtfSimpleUart.ed0.clk $end
    $var wire 1 rtfSimpleUart.ed0.ce rtfSimpleUart.ed0.ce $end
    $var wire 1 rtfSimpleUart.ed0.i rtfSimpleUart.ed0.i $end
    $var wire 1 rtfSimpleUart.ed0.pe rtfSimpleUart.ed0.pe $end
    $var wire 1 rtfSimpleUart.ed0.ne rtfSimpleUart.ed0.ne $end
    $var wire 1 rtfSimpleUart.ed0.ee rtfSimpleUart.ed0.ee $end
    $var reg 1 rtfSimpleUart.ed0.ed rtfSimpleUart.ed0.ed $end
  $upscope $end
  $scope module uart_rx0 $end
    $var wire 32 rtfSimpleUart.uart_rx0.SamplerStyle rtfSimpleUart.uart_rx0.SamplerStyle [0:31] $end
    $var reg 8 rtfSimpleUart.uart_rx0.cnt rtfSimpleUart.uart_rx0.cnt [7:0] $end
    $var reg 10 rtfSimpleUart.uart_rx0.rx_data rtfSimpleUart.uart_rx0.rx_data [9:0] $end
    $var reg 1 rtfSimpleUart.uart_rx0.state rtfSimpleUart.uart_rx0.state $end
    $var reg 1 rtfSimpleUart.uart_rx0.wf rtfSimpleUart.uart_rx0.wf $end
    $var reg 8 rtfSimpleUart.uart_rx0.dat rtfSimpleUart.uart_rx0.dat [7:0] $end
    $var wire 1 rtfSimpleUart.uart_rx0.isX8 rtfSimpleUart.uart_rx0.isX8 $end
    $var reg 1 rtfSimpleUart.uart_rx0.modeX8 rtfSimpleUart.uart_rx0.modeX8 $end
    $var reg 6 rtfSimpleUart.uart_rx0.rxdd rtfSimpleUart.uart_rx0.rxdd [5:0] $end
    $var reg 1 rtfSimpleUart.uart_rx0.rxdsmp rtfSimpleUart.uart_rx0.rxdsmp $end
    $var reg 1 rtfSimpleUart.uart_rx0.rdxstart rtfSimpleUart.uart_rx0.rdxstart $end
    $var reg 2 rtfSimpleUart.uart_rx0.rxdsum rtfSimpleUart.uart_rx0.rxdsum [1:0] $end
    $var wire 1 rtfSimpleUart.uart_rx0.rst_i rtfSimpleUart.uart_rx0.rst_i $end
    $var wire 1 rtfSimpleUart.uart_rx0.clk_i rtfSimpleUart.uart_rx0.clk_i $end
    $var wire 1 rtfSimpleUart.uart_rx0.cyc_i rtfSimpleUart.uart_rx0.cyc_i $end
    $var wire 1 rtfSimpleUart.uart_rx0.stb_i rtfSimpleUart.uart_rx0.stb_i $end
    $var wire 1 rtfSimpleUart.uart_rx0.ack_o rtfSimpleUart.uart_rx0.ack_o $end
    $var wire 1 rtfSimpleUart.uart_rx0.we_i rtfSimpleUart.uart_rx0.we_i $end
    $var wire 8 rtfSimpleUart.uart_rx0.dat_o rtfSimpleUart.uart_rx0.dat_o [7:0] $end
    $var wire 1 rtfSimpleUart.uart_rx0.cs_i rtfSimpleUart.uart_rx0.cs_i $end
    $var wire 1 rtfSimpleUart.uart_rx0.baud16x_ce rtfSimpleUart.uart_rx0.baud16x_ce $end
    $var wire 1 rtfSimpleUart.uart_rx0.baud8x rtfSimpleUart.uart_rx0.baud8x $end
    $var wire 1 rtfSimpleUart.uart_rx0.clear rtfSimpleUart.uart_rx0.clear $end
    $var wire 1 rtfSimpleUart.uart_rx0.rxd rtfSimpleUart.uart_rx0.rxd $end
    $var reg 1 rtfSimpleUart.uart_rx0.data_present rtfSimpleUart.uart_rx0.data_present $end
    $var reg 1 rtfSimpleUart.uart_rx0.frame_err rtfSimpleUart.uart_rx0.frame_err $end
    $var reg 1 rtfSimpleUart.uart_rx0.overrun rtfSimpleUart.uart_rx0.overrun $end
  $upscope $end
  $scope module uart_tx0 $end
    $var reg 10 rtfSimpleUart.uart_tx0.tx_data rtfSimpleUart.uart_tx0.tx_data [9:0] $end
    $var reg 8 rtfSimpleUart.uart_tx0.fdo rtfSimpleUart.uart_tx0.fdo [7:0] $end
    $var reg 8 rtfSimpleUart.uart_tx0.cnt rtfSimpleUart.uart_tx0.cnt [7:0] $end
    $var reg 1 rtfSimpleUart.uart_tx0.rd rtfSimpleUart.uart_tx0.rd $end
    $var wire 1 rtfSimpleUart.uart_tx0.isX8 rtfSimpleUart.uart_tx0.isX8 $end
    $var reg 1 rtfSimpleUart.uart_tx0.modeX8 rtfSimpleUart.uart_tx0.modeX8 $end
    $var wire 1 rtfSimpleUart.uart_tx0.rst_i rtfSimpleUart.uart_tx0.rst_i $end
    $var wire 1 rtfSimpleUart.uart_tx0.clk_i rtfSimpleUart.uart_tx0.clk_i $end
    $var wire 1 rtfSimpleUart.uart_tx0.cyc_i rtfSimpleUart.uart_tx0.cyc_i $end
    $var wire 1 rtfSimpleUart.uart_tx0.stb_i rtfSimpleUart.uart_tx0.stb_i $end
    $var wire 1 rtfSimpleUart.uart_tx0.ack_o rtfSimpleUart.uart_tx0.ack_o $end
    $var wire 1 rtfSimpleUart.uart_tx0.we_i rtfSimpleUart.uart_tx0.we_i $end
    $var wire 8 rtfSimpleUart.uart_tx0.dat_i rtfSimpleUart.uart_tx0.dat_i [7:0] $end
    $var wire 1 rtfSimpleUart.uart_tx0.cs_i rtfSimpleUart.uart_tx0.cs_i $end
    $var wire 1 rtfSimpleUart.uart_tx0.baud16x_ce rtfSimpleUart.uart_tx0.baud16x_ce $end
    $var wire 1 rtfSimpleUart.uart_tx0.baud8x rtfSimpleUart.uart_tx0.baud8x $end
    $var wire 1 rtfSimpleUart.uart_tx0.cts rtfSimpleUart.uart_tx0.cts $end
    $var wire 1 rtfSimpleUart.uart_tx0.txd rtfSimpleUart.uart_tx0.txd $end
    $var reg 1 rtfSimpleUart.uart_tx0.empty rtfSimpleUart.uart_tx0.empty $end
    $var reg 1 rtfSimpleUart.uart_tx0.txc rtfSimpleUart.uart_tx0.txc $end
  $upscope $end
$upscope $end
$enddefinitions $end
#0
0rtfSimpleUart.cs
b000000000000000000000000 rtfSimpleUart.c
b000000000000000000000000 rtfSimpleUart.ck_mul
b00000000 rtfSimpleUart.spr
0rtfSimpleUart.tx_empty
0rtfSimpleUart.baud16
0rtfSimpleUart.rx_present_ie
0rtfSimpleUart.tx_empty_ie
0rtfSimpleUart.dcd_ie
1rtfSimpleUart.hwfc
1rtfSimpleUart.loopback
0rtfSimpleUart.clear
0rtfSimpleUart.frame_err
0rtfSimpleUart.over_run
b01 rtfSimpleUart.ctsx
b11 rtfSimpleUart.dcdx
b00 rtfSimpleUart.dsrx
0rtfSimpleUart.dcd_chg
0rtfSimpleUart.rxIRQ
0rtfSimpleUart.txIRQ
0rtfSimpleUart.msIRQ
b000 rtfSimpleUart.irqenc
b00000000 rtfSimpleUart.rx_do
0rtfSimpleUart.txrx
0rtfSimpleUart.txd_int
0rtfSimpleUart.rxd_int
0rtfSimpleUart.cts_nint
1rtfSimpleUart.rst_i
0rtfSimpleUart.clk_i
1rtfSimpleUart.cyc_i
0rtfSimpleUart.stb_i
1rtfSimpleUart.we_i
b11010001110100000000101000000011 rtfSimpleUart.adr_i
b00000000 rtfSimpleUart.dat_i
b00000000 rtfSimpleUart.dat_o
0rtfSimpleUart.ack_o
0rtfSimpleUart.vol_o
0rtfSimpleUart.irq_o
0rtfSimpleUart.cts_ni
0rtfSimpleUart.rts_no
0rtfSimpleUart.dsr_ni
0rtfSimpleUart.dcd_ni
0rtfSimpleUart.dtr_no
1rtfSimpleUart.rxd_i
1rtfSimpleUart.txd_o
0rtfSimpleUart.data_present_o
b00000000 rtfSimpleUart.uart_rx0.cnt
b0000000000 rtfSimpleUart.uart_rx0.rx_data
0rtfSimpleUart.uart_rx0.state
0rtfSimpleUart.uart_rx0.wf
b00000000 rtfSimpleUart.uart_rx0.dat
0rtfSimpleUart.uart_rx0.isX8
0rtfSimpleUart.uart_rx0.modeX8
b000000 rtfSimpleUart.uart_rx0.rxdd
0rtfSimpleUart.uart_rx0.rxdsmp
1rtfSimpleUart.uart_rx0.rdxstart
b00 rtfSimpleUart.uart_rx0.rxdsum
1rtfSimpleUart.uart_rx0.rst_i
0rtfSimpleUart.uart_rx0.clk_i
1rtfSimpleUart.uart_rx0.cyc_i
0rtfSimpleUart.uart_rx0.stb_i
0rtfSimpleUart.uart_rx0.ack_o
1rtfSimpleUart.uart_rx0.we_i
b00000000 rtfSimpleUart.uart_rx0.dat_o
0rtfSimpleUart.uart_rx0.cs_i
0rtfSimpleUart.uart_rx0.baud16x_ce
0rtfSimpleUart.uart_rx0.baud8x
0rtfSimpleUart.uart_rx0.clear
0rtfSimpleUart.uart_rx0.rxd
0rtfSimpleUart.uart_rx0.data_present
0rtfSimpleUart.uart_rx0.frame_err
0rtfSimpleUart.uart_rx0.overrun
b1000000000 rtfSimpleUart.uart_tx0.tx_data
b00000000 rtfSimpleUart.uart_tx0.fdo
b00000000 rtfSimpleUart.uart_tx0.cnt
0rtfSimpleUart.uart_tx0.rd
0rtfSimpleUart.uart_tx0.isX8
0rtfSimpleUart.uart_tx0.modeX8
1rtfSimpleUart.uart_tx0.rst_i
0rtfSimpleUart.uart_tx0.clk_i
1rtfSimpleUart.uart_tx0.cyc_i
0rtfSimpleUart.uart_tx0.stb_i
0rtfSimpleUart.uart_tx0.ack_o
1rtfSimpleUart.uart_tx0.we_i
b00000000 rtfSimpleUart.uart_tx0.dat_i
0rtfSimpleUart.uart_tx0.cs_i
0rtfSimpleUart.uart_tx0.baud16x_ce
0rtfSimpleUart.uart_tx0.baud8x
0rtfSimpleUart.uart_tx0.cts
0rtfSimpleUart.uart_tx0.txd
0rtfSimpleUart.uart_tx0.empty
0rtfSimpleUart.uart_tx0.txc
1rtfSimpleUart.ed0.rst
0rtfSimpleUart.ed0.clk
1rtfSimpleUart.ed0.ce
0rtfSimpleUart.ed0.i
0rtfSimpleUart.ed0.pe
0rtfSimpleUart.ed0.ne
0rtfSimpleUart.ed0.ee
0rtfSimpleUart.ed0.ed
#1
b000000111110111100110110 rtfSimpleUart.ck_mul
1rtfSimpleUart.tx_empty
0rtfSimpleUart.loopback
b11 rtfSimpleUart.ctsx
b01 rtfSimpleUart.dsrx
1rtfSimpleUart.txd_int
1rtfSimpleUart.rxd_int
0rtfSimpleUart.rst_i
0rtfSimpleUart.cyc_i
0rtfSimpleUart.uart_rx0.rdxstart
0rtfSimpleUart.uart_rx0.rst_i
0rtfSimpleUart.uart_rx0.cyc_i
1rtfSimpleUart.uart_rx0.rxd
b1111111111 rtfSimpleUart.uart_tx0.tx_data
b10011111 rtfSimpleUart.uart_tx0.cnt
0rtfSimpleUart.uart_tx0.rst_i
0rtfSimpleUart.uart_tx0.cyc_i
1rtfSimpleUart.uart_tx0.cts
1rtfSimpleUart.uart_tx0.txd
1rtfSimpleUart.uart_tx0.empty
1rtfSimpleUart.uart_tx0.txc
0rtfSimpleUart.ed0.rst
#2
1rtfSimpleUart.cs
b000000111110111100110110 rtfSimpleUart.c
b11 rtfSimpleUart.dsrx
1rtfSimpleUart.cyc_i
1rtfSimpleUart.stb_i
b11111111110111000000101000000100 rtfSimpleUart.adr_i
1rtfSimpleUart.ack_o
b000001 rtfSimpleUart.uart_rx0.rxdd
1rtfSimpleUart.uart_rx0.cyc_i
1rtfSimpleUart.uart_rx0.stb_i
1rtfSimpleUart.uart_tx0.cyc_i
1rtfSimpleUart.uart_tx0.stb_i
#3
0rtfSimpleUart.cs
b000001111101111001101100 rtfSimpleUart.c
0rtfSimpleUart.cyc_i
0rtfSimpleUart.stb_i
0rtfSimpleUart.we_i
0rtfSimpleUart.ack_o
b000011 rtfSimpleUart.uart_rx0.rxdd
0rtfSimpleUart.uart_rx0.cyc_i
0rtfSimpleUart.uart_rx0.stb_i
0rtfSimpleUart.uart_rx0.we_i
0rtfSimpleUart.uart_tx0.cyc_i
0rtfSimpleUart.uart_tx0.stb_i
0rtfSimpleUart.uart_tx0.we_i
#4
1rtfSimpleUart.cs
b000010111100110110100010 rtfSimpleUart.c
1rtfSimpleUart.cyc_i
1rtfSimpleUart.stb_i
1rtfSimpleUart.we_i
b11111111110111000000101000000111 rtfSimpleUart.adr_i
b00000001 rtfSimpleUart.dat_o
1rtfSimpleUart.ack_o
b000111 rtfSimpleUart.uart_rx0.rxdd
1rtfSimpleUart.uart_rx0.cyc_i
1rtfSimpleUart.uart_rx0.stb_i
1rtfSimpleUart.uart_rx0.we_i
1rtfSimpleUart.uart_tx0.cyc_i
1rtfSimpleUart.uart_tx0.stb_i
1rtfSimpleUart.uart_tx0.we_i
#5
0rtfSimpleUart.cs
b000011111011110011011000 rtfSimpleUart.c
0rtfSimpleUart.hwfc
0rtfSimpleUart.cyc_i
0rtfSimpleUart.stb_i
0rtfSimpleUart.we_i
b00000000 rtfSimpleUart.dat_o
0rtfSimpleUart.ack_o
b001111 rtfSimpleUart.uart_rx0.rxdd
0rtfSimpleUart.uart_rx0.cyc_i
0rtfSimpleUart.uart_rx0.stb_i
0rtfSimpleUart.uart_rx0.we_i
0rtfSimpleUart.uart_tx0.cyc_i
0rtfSimpleUart.uart_tx0.stb_i
0rtfSimpleUart.uart_tx0.we_i
#6
1rtfSimpleUart.cs
b000100111010110000001110 rtfSimpleUart.c
1rtfSimpleUart.cyc_i
1rtfSimpleUart.stb_i
1rtfSimpleUart.we_i
b11111111110111000000101000001011 rtfSimpleUart.adr_i
b10000000 rtfSimpleUart.dat_i
b00000011 rtfSimpleUart.dat_o
1rtfSimpleUart.ack_o
b011111 rtfSimpleUart.uart_rx0.rxdd
1rtfSimpleUart.uart_rx0.rxdsmp
1rtfSimpleUart.uart_rx0.cyc_i
1rtfSimpleUart.uart_rx0.stb_i
1rtfSimpleUart.uart_rx0.we_i
1rtfSimpleUart.uart_tx0.cyc_i
1rtfSimpleUart.uart_tx0.stb_i
1rtfSimpleUart.uart_tx0.we_i
b10000000 rtfSimpleUart.uart_tx0.dat_i
#7
b000101111001101101000100 rtfSimpleUart.c
b100000001110111100110110 rtfSimpleUart.ck_mul
b11111111110111000000101000001010 rtfSimpleUart.adr_i
b00000000 rtfSimpleUart.dat_i
b11101111 rtfSimpleUart.dat_o
b111111 rtfSimpleUart.uart_rx0.rxdd
b00000000 rtfSimpleUart.uart_tx0.dat_i
#8
b100110001000101001111010 rtfSimpleUart.c
b100000000000000000110110 rtfSimpleUart.ck_mul
1rtfSimpleUart.baud16
b11111111110111000000101000001001 rtfSimpleUart.adr_i
b00110110 rtfSimpleUart.dat_o
1rtfSimpleUart.uart_rx0.baud16x_ce
1rtfSimpleUart.uart_tx0.baud16x_ce
1rtfSimpleUart.ed0.i
1rtfSimpleUart.ed0.pe
1rtfSimpleUart.ed0.ee
#9
b000110001000101010110000 rtfSimpleUart.c
b100000000000000000000000 rtfSimpleUart.ck_mul
0rtfSimpleUart.baud16
0rtfSimpleUart.we_i
b11111111110111000000101000000001 rtfSimpleUart.adr_i
b01100000 rtfSimpleUart.dat_o
1rtfSimpleUart.vol_o
0rtfSimpleUart.uart_rx0.we_i
0rtfSimpleUart.uart_rx0.baud16x_ce
0rtfSimpleUart.uart_tx0.we_i
0rtfSimpleUart.uart_tx0.baud16x_ce
0rtfSimpleUart.uart_tx0.txc
0rtfSimpleUart.ed0.i
0rtfSimpleUart.ed0.pe
1rtfSimpleUart.ed0.ne
1rtfSimpleUart.ed0.ed
#10
b100110001000101010110000 rtfSimpleUart.c
1rtfSimpleUart.baud16
1rtfSimpleUart.txrx
1rtfSimpleUart.we_i
b11111111110111000000101000000000 rtfSimpleUart.adr_i
b00110010 rtfSimpleUart.dat_i
b00000000 rtfSimpleUart.dat_o
1rtfSimpleUart.uart_rx0.ack_o
1rtfSimpleUart.uart_rx0.we_i
1rtfSimpleUart.uart_rx0.cs_i
1rtfSimpleUart.uart_rx0.baud16x_ce
1rtfSimpleUart.uart_tx0.ack_o
1rtfSimpleUart.uart_tx0.we_i
b00110010 rtfSimpleUart.uart_tx0.dat_i
1rtfSimpleUart.uart_tx0.cs_i
1rtfSimpleUart.uart_tx0.baud16x_ce
1rtfSimpleUart.ed0.i
1rtfSimpleUart.ed0.pe
0rtfSimpleUart.ed0.ne
0rtfSimpleUart.ed0.ed
#11
b000110001000101010110000 rtfSimpleUart.c
0rtfSimpleUart.tx_empty
0rtfSimpleUart.baud16
0rtfSimpleUart.txrx
0rtfSimpleUart.we_i
b11111111110111000000101000000001 rtfSimpleUart.adr_i
0rtfSimpleUart.uart_rx0.ack_o
0rtfSimpleUart.uart_rx0.we_i
0rtfSimpleUart.uart_rx0.cs_i
0rtfSimpleUart.uart_rx0.baud16x_ce
b00110010 rtfSimpleUart.uart_tx0.fdo
0rtfSimpleUart.uart_tx0.ack_o
0rtfSimpleUart.uart_tx0.we_i
0rtfSimpleUart.uart_tx0.cs_i
0rtfSimpleUart.uart_tx0.baud16x_ce
0rtfSimpleUart.uart_tx0.empty
0rtfSimpleUart.ed0.i
0rtfSimpleUart.ed0.pe
1rtfSimpleUart.ed0.ne
1rtfSimpleUart.ed0.ed
#12
0rtfSimpleUart.cs
b100110001000101010110000 rtfSimpleUart.c
1rtfSimpleUart.baud16
0rtfSimpleUart.cyc_i
0rtfSimpleUart.stb_i
0rtfSimpleUart.ack_o
0rtfSimpleUart.vol_o
0rtfSimpleUart.uart_rx0.cyc_i
0rtfSimpleUart.uart_rx0.stb_i
1rtfSimpleUart.uart_rx0.baud16x_ce
0rtfSimpleUart.uart_tx0.cyc_i
0rtfSimpleUart.uart_tx0.stb_i
1rtfSimpleUart.uart_tx0.baud16x_ce
1rtfSimpleUart.ed0.i
1rtfSimpleUart.ed0.pe
0rtfSimpleUart.ed0.ne
0rtfSimpleUart.ed0.ed
#13
b000110001000101010110000 rtfSimpleUart.c
0rtfSimpleUart.baud16
0rtfSimpleUart.uart_rx0.baud16x_ce
b1001100101 rtfSimpleUart.uart_tx0.tx_data
b00000000 rtfSimpleUart.uart_tx0.cnt
1rtfSimpleUart.uart_tx0.rd
0rtfSimpleUart.uart_tx0.baud16x_ce
0rtfSimpleUart.ed0.i
0rtfSimpleUart.ed0.pe
1rtfSimpleUart.ed0.ne
1rtfSimpleUart.ed0.ed
#14
b100110001000101010110000 rtfSimpleUart.c
1rtfSimpleUart.tx_empty
1rtfSimpleUart.baud16
1rtfSimpleUart.uart_rx0.baud16x_ce
0rtfSimpleUart.uart_tx0.rd
1rtfSimpleUart.uart_tx0.baud16x_ce
1rtfSimpleUart.uart_tx0.empty
1rtfSimpleUart.ed0.i
1rtfSimpleUart.ed0.pe
0rtfSimpleUart.ed0.ne
0rtfSimpleUart.ed0.ed
#15
b000110001000101010110000 rtfSimpleUart.c
0rtfSimpleUart.baud16
0rtfSimpleUart.uart_rx0.baud16x_ce
b00000001 rtfSimpleUart.uart_tx0.cnt
0rtfSimpleUart.uart_tx0.baud16x_ce
0rtfSimpleUart.ed0.i
0rtfSimpleUart.ed0.pe
1rtfSimpleUart.ed0.ne
1rtfSimpleUart.ed0.ed
#16
b100110001000101010110000 rtfSimpleUart.c
1rtfSimpleUart.baud16
1rtfSimpleUart.uart_rx0.baud16x_ce
1rtfSimpleUart.uart_tx0.baud16x_ce
1rtfSimpleUart.ed0.i
1rtfSimpleUart.ed0.pe
0rtfSimpleUart.ed0.ne
0rtfSimpleUart.ed0.ed
#17
b000110001000101010110000 rtfSimpleUart.c
0rtfSimpleUart.baud16
0rtfSimpleUart.uart_rx0.baud16x_ce
b00000010 rtfSimpleUart.uart_tx0.cnt
0rtfSimpleUart.uart_tx0.baud16x_ce
0rtfSimpleUart.ed0.i
0rtfSimpleUart.ed0.pe
1rtfSimpleUart.ed0.ne
1rtfSimpleUart.ed0.ed
#18
b100110001000101010110000 rtfSimpleUart.c
1rtfSimpleUart.baud16
1rtfSimpleUart.uart_rx0.baud16x_ce
1rtfSimpleUart.uart_tx0.baud16x_ce
1rtfSimpleUart.ed0.i
1rtfSimpleUart.ed0.pe
0rtfSimpleUart.ed0.ne
0rtfSimpleUart.ed0.ed
#19
b000110001000101010110000 rtfSimpleUart.c
0rtfSimpleUart.baud16
0rtfSimpleUart.uart_rx0.baud16x_ce
b00000011 rtfSimpleUart.uart_tx0.cnt
0rtfSimpleUart.uart_tx0.baud16x_ce
0rtfSimpleUart.ed0.i
0rtfSimpleUart.ed0.pe
1rtfSimpleUart.ed0.ne
1rtfSimpleUart.ed0.ed
#20
b100110001000101010110000 rtfSimpleUart.c
1rtfSimpleUart.baud16
1rtfSimpleUart.uart_rx0.baud16x_ce
1rtfSimpleUart.uart_tx0.baud16x_ce
1rtfSimpleUart.ed0.i
1rtfSimpleUart.ed0.pe
0rtfSimpleUart.ed0.ne
0rtfSimpleUart.ed0.ed
#21
b000110001000101010110000 rtfSimpleUart.c
0rtfSimpleUart.baud16
0rtfSimpleUart.uart_rx0.baud16x_ce
b00000100 rtfSimpleUart.uart_tx0.cnt
0rtfSimpleUart.uart_tx0.baud16x_ce
0rtfSimpleUart.ed0.i
0rtfSimpleUart.ed0.pe
1rtfSimpleUart.ed0.ne
1rtfSimpleUart.ed0.ed
#22
b100110001000101010110000 rtfSimpleUart.c
1rtfSimpleUart.baud16
1rtfSimpleUart.uart_rx0.baud16x_ce
1rtfSimpleUart.uart_tx0.baud16x_ce
1rtfSimpleUart.ed0.i
1rtfSimpleUart.ed0.pe
0rtfSimpleUart.ed0.ne
0rtfSimpleUart.ed0.ed
#23
b000110001000101010110000 rtfSimpleUart.c
0rtfSimpleUart.baud16
0rtfSimpleUart.uart_rx0.baud16x_ce
b00000101 rtfSimpleUart.uart_tx0.cnt
0rtfSimpleUart.uart_tx0.baud16x_ce
0rtfSimpleUart.ed0.i
0rtfSimpleUart.ed0.pe
1rtfSimpleUart.ed0.ne
1rtfSimpleUart.ed0.ed
#24
b100110001000101010110000 rtfSimpleUart.c
1rtfSimpleUart.baud16
1rtfSimpleUart.uart_rx0.baud16x_ce
1rtfSimpleUart.uart_tx0.baud16x_ce
1rtfSimpleUart.ed0.i
1rtfSimpleUart.ed0.pe
0rtfSimpleUart.ed0.ne
0rtfSimpleUart.ed0.ed
#25
b000110001000101010110000 rtfSimpleUart.c
0rtfSimpleUart.baud16
0rtfSimpleUart.uart_rx0.baud16x_ce
b00000110 rtfSimpleUart.uart_tx0.cnt
0rtfSimpleUart.uart_tx0.baud16x_ce
0rtfSimpleUart.ed0.i
0rtfSimpleUart.ed0.pe
1rtfSimpleUart.ed0.ne
1rtfSimpleUart.ed0.ed
#26
b100110001000101010110000 rtfSimpleUart.c
1rtfSimpleUart.baud16
1rtfSimpleUart.uart_rx0.baud16x_ce
1rtfSimpleUart.uart_tx0.baud16x_ce
1rtfSimpleUart.ed0.i
1rtfSimpleUart.ed0.pe
0rtfSimpleUart.ed0.ne
0rtfSimpleUart.ed0.ed
#27
b000110001000101010110000 rtfSimpleUart.c
0rtfSimpleUart.baud16
0rtfSimpleUart.uart_rx0.baud16x_ce
b00000111 rtfSimpleUart.uart_tx0.cnt
0rtfSimpleUart.uart_tx0.baud16x_ce
0rtfSimpleUart.ed0.i
0rtfSimpleUart.ed0.pe
1rtfSimpleUart.ed0.ne
1rtfSimpleUart.ed0.ed
#28
b100110001000101010110000 rtfSimpleUart.c
1rtfSimpleUart.baud16
1rtfSimpleUart.uart_rx0.baud16x_ce
1rtfSimpleUart.uart_tx0.baud16x_ce
1rtfSimpleUart.ed0.i
1rtfSimpleUart.ed0.pe
0rtfSimpleUart.ed0.ne
0rtfSimpleUart.ed0.ed
#29
b000110001000101010110000 rtfSimpleUart.c
0rtfSimpleUart.baud16
0rtfSimpleUart.uart_rx0.baud16x_ce
b00001000 rtfSimpleUart.uart_tx0.cnt
0rtfSimpleUart.uart_tx0.baud16x_ce
0rtfSimpleUart.ed0.i
0rtfSimpleUart.ed0.pe
1rtfSimpleUart.ed0.ne
1rtfSimpleUart.ed0.ed
#30
b100110001000101010110000 rtfSimpleUart.c
1rtfSimpleUart.baud16
1rtfSimpleUart.uart_rx0.baud16x_ce
1rtfSimpleUart.uart_tx0.baud16x_ce
1rtfSimpleUart.ed0.i
1rtfSimpleUart.ed0.pe
0rtfSimpleUart.ed0.ne
0rtfSimpleUart.ed0.ed
#31
b000110001000101010110000 rtfSimpleUart.c
0rtfSimpleUart.baud16
0rtfSimpleUart.uart_rx0.baud16x_ce
b00001001 rtfSimpleUart.uart_tx0.cnt
0rtfSimpleUart.uart_tx0.baud16x_ce
0rtfSimpleUart.ed0.i
0rtfSimpleUart.ed0.pe
1rtfSimpleUart.ed0.ne
1rtfSimpleUart.ed0.ed
#32
1rtfSimpleUart.cs
b100110001000101010110000 rtfSimpleUart.c
1rtfSimpleUart.baud16
1rtfSimpleUart.cyc_i
1rtfSimpleUart.stb_i
b01100000 rtfSimpleUart.dat_o
1rtfSimpleUart.ack_o
1rtfSimpleUart.vol_o
1rtfSimpleUart.uart_rx0.cyc_i
1rtfSimpleUart.uart_rx0.stb_i
1rtfSimpleUart.uart_rx0.baud16x_ce
1rtfSimpleUart.uart_tx0.cyc_i
1rtfSimpleUart.uart_tx0.stb_i
1rtfSimpleUart.uart_tx0.baud16x_ce
1rtfSimpleUart.ed0.i
1rtfSimpleUart.ed0.pe
0rtfSimpleUart.ed0.ne
0rtfSimpleUart.ed0.ed
